…
Gráficos de barras são muito úteis para podermos comparar fatores. Quando estão um ao lado do outro a comparação é feita rapidamente, já que as barras dão a noção de escala. Normalmente as barras informam um resumo (i. e. média, soma ou contagem), mas podemos ainda adicionar uma barra de erro ou desvio e deixar o gráfico mais detalhado.

Continuaremos com o banco de dados apresentado no post sobre tidy data.

if (!require("pacman")) install.packages("pacman")
pacman::p_load(readr, dplyr, ggplot2)

dados <- read_csv2(
  "https://github.com/italocegatta/italocegatta.github.io_source/raw/master/content/dados/base_vespa.csv"
)

dados

## # A tibble: 2,100 x 5
##    Tratamento Individuo Coleta Local   Galhas
##    <chr>          <dbl>  <dbl> <chr>    <dbl>
##  1 Actara d1          1      1 Peciolo      1
##  2 Actara d1          2      1 Peciolo     NA
##  3 Actara d1          3      1 Peciolo     NA
##  4 Actara d1          4      1 Peciolo     NA
##  5 Actara d1          5      1 Peciolo     NA
##  6 Actara d1          6      1 Peciolo     NA
##  7 Actara d1          7      1 Peciolo     NA
##  8 Actara d1          8      1 Peciolo     NA
##  9 Actara d1          9      1 Peciolo     NA
## 10 Actara d1         10      1 Peciolo     NA
## # ... with 2,090 more rows
…
Figura  1: Número total de galhas de cada tratamento.

Mas ainda temos a variável Local, certo? Podemos apresentá-la sem muito esforço.

total_trat_local <- dados %>%
  filter(Coleta == 5) %>%
  group_by(Tratamento, Local) %>%
  summarise(Galhas = sum(Galhas, na.rm=T))

total_trat_local

## # A tibble: 21 x 3
## # Groups:   Tratamento [?]
##    Tratamento  Local   Galhas
##    <chr>       <chr>    <dbl>
##  1 Actara d1   Caule       13
##  2 Actara d1   Nervura     19
##  3 Actara d1   Peciolo     41
##  4 Actara d2   Caule       10
##  5 Actara d2   Nervura      9
##  6 Actara d2   Peciolo     38
##  7 Actara d3   Caule        7
##  8 Actara d3   Nervura      6
##  9 Actara d3   Peciolo     17
## 10 Evidence d1 Caule        6
## # ... with 11 more rows
…
No caso das Figuras 10 e 11, precisamos dos dados agrupados por Tratamento e Local. O código para o gráfico é muito semelhante aos anteriores. Em alguns tratamentos há somente um indivíduo com contagem de galhas, portanto, nesta situação não há barra de desvio.

# Seleciona apenas as Coletas de numero 5, em seguida calcula a mediana e o
# desvio padrão em função de cada Trtatamento e Local.

mediana_trat_local_desv <- dados %>%
  filter(Coleta == 5) %>%
  group_by(Tratamento, Local) %>%
  summarise(desv = sd(Galhas, na.rm=T)/sqrt(n()),
    Galhas = median(Galhas, na.rm=T))

mediana_trat_local_desv

## # A tibble: 21 x 4
## # Groups:   Tratamento [?]
##    Tratamento  Local    desv Galhas
##    <chr>       <chr>   <dbl>  <dbl>
##  1 Actara d1   Caule   0.329      2
##  2 Actara d1   Nervura 0.828      3
##  3 Actara d1   Peciolo 1.02       4
##  4 Actara d2   Caule   0.271      1
##  5 Actara d2   Nervura 0.281      2
##  6 Actara d2   Peciolo 1.18       4
##  7 Actara d3   Caule   0.112      2
##  8 Actara d3   Nervura 0          2
##  9 Actara d3   Peciolo 0.297      3
## 10 Evidence d1 Caule   0.224      2
## # ... with 11 more rows
…
