…
Para exemplificar, vamos fazer algo muito comum nas ciências florestais, que é predizer as alturas das árvores. Medir a altura da árvore é uma atividade laboriosa, e há muito tempo se sabe que a altura total das árvores possui alta correlação com o seu diâmetro.

Utilizaremos mais uma vez os dados do Projeto TUME, referente a medição de 24 meses do TUME 55 plantado no Mato Grosso do Sul.

if (!require("pacman")) install.packages("pacman")
pacman::p_load(readr, dplyr, tidyr, broom, purrr, ggplot2)

dados <- read_csv2(
  "https://github.com/italocegatta/italocegatta.github.io_source/raw/master/content/dados/tume_55_24.csv"
)

dados

## # A tibble: 1,881 x 9
##    N_tume I_meses Esp          Parc_m2 N_arv DAP_cm   H_m   Cod  Cod2
##     <int>   <int> <chr>          <dbl> <int>  <dbl> <dbl> <int> <int>
##  1     55      24 E_botryoides    600.     1   4.10  6.50    NA    NA
##  2     55      24 E_botryoides    600.     2   9.70  8.00    NA    NA
##  3     55      24 E_botryoides    600.     3  NA    NA        5    NA
##  4     55      24 E_botryoides    600.     4   7.60  7.50     2    NA
##  5     55      24 E_botryoides    600.     5   3.80  5.00    NA    NA
##  6     55      24 E_botryoides    600.     6  NA    NA        1    NA
##  7     55      24 E_botryoides    600.     7  12.6   9.00     6    NA
##  8     55      24 E_botryoides    600.     8  NA    NA        1    NA
##  9     55      24 E_botryoides    600.     9   7.00  8.00    NA    NA
## 10     55      24 E_botryoides    600.    10   7.50  7.50    NA    NA
## # ... with 1,871 more rows
…
Figura  2: Relação entre o diâmetro e a altura por espécie.

A primeira etapa é entender que um data.frame pode conter vários tipos de elementos, como números, caracteres, listas e também outros data.frames. Para isso utilizaremos a função nest() do pacote tidyr e aninharemos os dados em função das espécies.

dados %>%
  group_by(Esp) %>% 
  nest()

## # A tibble: 24 x 2
##    Esp                     data             
##    <chr>                   <list>           
##  1 E_botryoides            <tibble [80 x 8]>
##  2 E_brassiana             <tibble [80 x 8]>
##  3 E_camaldulensis         <tibble [80 x 8]>
##  4 E_citriodora            <tibble [80 x 8]>
##  5 E_cloeziana             <tibble [51 x 8]>
##  6 E_dunnii_urophylla      <tibble [80 x 8]>
##  7 E_exserta               <tibble [80 x 8]>
##  8 E_grandis_AT            <tibble [80 x 8]>
##  9 E_grandis_camaldulensis <tibble [80 x 8]>
## 10 E_grandis_CH            <tibble [80 x 8]>
## # ... with 14 more rows
Agora podemos ajustar um modelo de regressão para cada espécie utilizando a função map,do pacote purrr. Podemos ainda extrair as informações desses modelos com as funções glance, tidy e augment, do pacote broom.

dados_modl <- dados %>%
  group_by(Esp) %>% 
  nest() %>% 
  mutate(
    ajuste = data %>% map(~ lm(log(H_m) ~ I(1/DAP_cm), data = .)),
    resumo = map(ajuste, glance),
    coef = map(ajuste, tidy),
    resid = map(ajuste, augment)
  )

dados_modl

## # A tibble: 24 x 6
##    Esp                     data              ajuste   resumo  coef   resid
##    <chr>                   <list>            <list>   <list>  <list> <lis>
##  1 E_botryoides            <tibble [80 x 8]> <S3: lm> <data.~ <data~ <dat~
##  2 E_brassiana             <tibble [80 x 8]> <S3: lm> <data.~ <data~ <dat~
##  3 E_camaldulensis         <tibble [80 x 8]> <S3: lm> <data.~ <data~ <dat~
##  4 E_citriodora            <tibble [80 x 8]> <S3: lm> <data.~ <data~ <dat~
##  5 E_cloeziana             <tibble [51 x 8]> <S3: lm> <data.~ <data~ <dat~
##  6 E_dunnii_urophylla      <tibble [80 x 8]> <S3: lm> <data.~ <data~ <dat~
##  7 E_exserta               <tibble [80 x 8]> <S3: lm> <data.~ <data~ <dat~
##  8 E_grandis_AT            <tibble [80 x 8]> <S3: lm> <data.~ <data~ <dat~
##  9 E_grandis_camaldulensis <tibble [80 x 8]> <S3: lm> <data.~ <data~ <dat~
## 10 E_grandis_CH            <tibble [80 x 8]> <S3: lm> <data.~ <data~ <dat~
## # ... with 14 more rows

Da mesma forma que aninhamos os dados por espécie, podemos retorná-los para o formato original, mas agora mostrando apenas as informações que realmente interessam.

dados_modl %>%
  select(Esp, resumo) %>% 
  unnest(resumo)

## # A tibble: 24 x 12
##    Esp      r.squared adj.r.squared  sigma statistic  p.value    df logLik
##    <chr>        <dbl>         <dbl>  <dbl>     <dbl>    <dbl> <int>  <dbl>
##  1 E_botry~     0.787         0.783 0.136      236.  3.85e-23     2   38.9
##  2 E_brass~     0.703         0.698 0.160      140.  3.26e-17     2   26.2
##  3 E_camal~     0.719         0.716 0.128      195.  1.14e-22     2   50.8
##  4 E_citri~     0.602         0.596 0.102      101.  4.98e-15     2   60.4
##  5 E_cloez~     0.260         0.234 0.167       10.2 3.42e- 3     2   12.5
##  6 E_dunni~     0.720         0.716 0.161      180.  5.03e-21     2   30.3
##  7 E_exser~     0.590         0.584 0.196       99.2 5.52e-15     2   16.1
##  8 E_grand~     0.747         0.744 0.0772     225.  2.12e-24     2   90.1
##  9 E_grand~     0.829         0.827 0.161      325.  2.11e-27     2   29.2
## 10 E_grand~     0.776         0.773 0.105      233.  1.75e-23     2   58.8
## # ... with 14 more rows, and 4 more variables: AIC <dbl>, BIC <dbl>,
## #   deviance <dbl>, df.residual <int>

dados_modl %>%
  select(Esp, coef ) %>% 
  unnest(coef)

## # A tibble: 48 x 6
##    Esp             term        estimate std.error statistic  p.value
##    <chr>           <chr>          <dbl>     <dbl>     <dbl>    <dbl>
##  1 E_botryoides    (Intercept)     2.63    0.0422     62.3  5.04e-59
##  2 E_botryoides    I(1/DAP_cm)    -4.13    0.269     -15.4  3.85e-23
##  3 E_brassiana     (Intercept)     2.01    0.0511     39.4  4.39e-44
##  4 E_brassiana     I(1/DAP_cm)    -2.37    0.201     -11.8  3.26e-17
##  5 E_camaldulensis (Intercept)     2.73    0.0461     59.2  2.33e-65
##  6 E_camaldulensis I(1/DAP_cm)    -4.79    0.343     -14.0  1.14e-22
##  7 E_citriodora    (Intercept)     2.55    0.0551     46.3  1.31e-52
##  8 E_citriodora    I(1/DAP_cm)    -3.80    0.378     -10.1  4.98e-15
##  9 E_cloeziana     (Intercept)     2.32    0.116      20.1  1.50e-18
## 10 E_cloeziana     I(1/DAP_cm)    -2.84    0.892      -3.19 3.42e- 3
## # ... with 38 more rows

dados_modl %>%
  select(Esp, resid) %>% 
  unnest(resid)

## # A tibble: 1,633 x 11
##    Esp      .rownames log.H_m. I.1.DAP_cm. .fitted .se.fit   .resid   .hat
##    <chr>    <chr>        <dbl>       <dbl>   <dbl>   <dbl>    <dbl>  <dbl>
##  1 E_botry~ 1             1.87      0.244     1.63  0.0317  0.246   0.0539
##  2 E_botry~ 2             2.08      0.103     2.21  0.0201 -0.128   0.0217
##  3 E_botry~ 4             2.01      0.132     2.09  0.0171 -0.0751  0.0158
##  4 E_botry~ 5             1.61      0.263     1.55  0.0361  0.0628  0.0702
##  5 E_botry~ 7             2.20      0.0794    2.31  0.0242 -0.108   0.0315
##  6 E_botry~ 9             2.08      0.143     2.04  0.0168  0.0360  0.0152
##  7 E_botry~ 10            2.01      0.133     2.08  0.0170 -0.0678  0.0156
##  8 E_botry~ 13            1.61      0.167     1.95  0.0178 -0.336   0.0171
##  9 E_botry~ 14            2.30      0.0980    2.23  0.0209  0.0741  0.0234
## 10 E_botry~ 15            2.14      0.120     2.14  0.0180  0.00425 0.0173
## # ... with 1,623 more rows, and 3 more variables: .sigma <dbl>,
## #   .cooksd <dbl>, .std.resid <dbl>
…
dados_pred <- dados_modl %>% 
  mutate(
    hpred = map2(ajuste, data, predict),
    hpred = map(hpred, exp)
  ) %>%
  select(Esp, data, hpred)

Por fim, temos de volta um data.frame com as alturas preditas. Por mais que o ajuste tenha ficado razoável, na prática a construção de modelos de relação hipsométrica envolvem outras etapas e um maior rigor em termos estatísticos.

dados_compl <- dados_pred %>%
  unnest(hpred, data)

dados_compl

## # A tibble: 1,881 x 10
##    Esp         hpred N_tume I_meses Parc_m2 N_arv DAP_cm   H_m   Cod  Cod2
##    <chr>       <dbl>  <int>   <int>   <dbl> <int>  <dbl> <dbl> <int> <int>
##  1 E_botryoid~  5.08     55      24    600.     1   4.10  6.50    NA    NA
##  2 E_botryoid~  9.09     55      24    600.     2   9.70  8.00    NA    NA
##  3 E_botryoid~ NA        55      24    600.     3  NA    NA        5    NA
##  4 E_botryoid~  8.08     55      24    600.     4   7.60  7.50     2    NA
##  5 E_botryoid~  4.70     55      24    600.     5   3.80  5.00    NA    NA
##  6 E_botryoid~ NA        55      24    600.     6  NA    NA        1    NA
##  7 E_botryoid~ 10.0      55      24    600.     7  12.6   9.00     6    NA
##  8 E_botryoid~ NA        55      24    600.     8  NA    NA        1    NA
##  9 E_botryoid~  7.72     55      24    600.     9   7.00  8.00    NA    NA
## 10 E_botryoid~  8.03     55      24    600.    10   7.50  7.50    NA    NA
## # ... with 1,871 more rows
…
