…
O post de hoje é sobre visualização de dados com dimensão espacial e temporal. Basicamente são gráficos que têm uma representação geográfica associada a informações que variam no tempo. Este tipo de análise é comum no meu dia a dia e por isso resolvi deixar 3 alternativas registradas aqui. O contexto que iremos abordar está relacionado ao banco de dados de focos de incêndios registrados pelo INPE no Programa Queimadas Monitoramento por Satélites. O site é bem interessante e apresenta algumas estatísticas úteis sobre as queimadas na América do Sul e Brasil. Iremos trabalhar com a tabela que resume os focos de incêndios por ano e Estado brasileiro.

if (!require("pacman")) install.packages("pacman")
pacman::p_load(readr, dplyr, sf, ggplot2, ggthemes, geofacet, scales)
pacman::p_load_gh("italocegatta/brmap")
pacman::p_load_gh("thomasp85/gganimate")

O primeiro passo foi copiar os dados da página e organizá-los no formato tidy. Poderíamos fazer uma análise exploratória dos dados, mas quero manter o foco em algo bem pontual: como mostrar os dados brutos de uma só vez? Ou seja, considerando a dimensão de tempo (ano), geografia (localização do estado) e variável resposta (focos) na mesma janela gráfica, de que forma poderíamos apresentar os dados?

focos <- read_csv2("https://raw.githubusercontent.com/italocegatta/italocegatta.github.io_source/master/content/dados/base_incendios.csv")

focos

## # A tibble: 162 x 3
##    sigla   ano focos
##    <chr> <dbl> <dbl>
##  1 AC     2011    13
##  2 AL     2011   127
##  3 AM     2011   159
##  4 AP     2011     5
##  5 BA     2011   883
##  6 CE     2011    44
##  7 DF     2011     8
##  8 ES     2011    55
##  9 GO     2011   492
## 10 MA     2011   656
## # ... with 152 more rows

Vamos agora adicionar a referência espacial aos dados utilizando os polígonos do pacote brmap.

estados_focos <-  focos %>% 
  left_join(brmap_estado, by = c("sigla" = "estado_sigla"))

estados_focos

## # A tibble: 162 x 7
##    sigla   ano focos cod_regiao cod_estado estado_nome
##    <chr> <dbl> <dbl>      <int>      <int> <chr>      
##  1 AC     2011    13          1         12 Acre       
##  2 AL     2011   127          2         27 Alagoas    
##  3 AM     2011   159          1         13 Amazonas   
##  4 AP     2011     5          1         16 Amapá      
##  5 BA     2011   883          2         29 Bahia      
##  6 CE     2011    44          2         23 Ceará      
##  7 DF     2011     8          5         53 Distrito F~
##  8 ES     2011    55          3         32 Espírito S~
##  9 GO     2011   492          5         52 Goiás      
## 10 MA     2011   656          2         21 Maranhão   
## # ... with 152 more rows, and 1 more variable: geometry <POLYGON [Â°]>
…
