…
if (!require("pacman")) install.packages("pacman")
pacman::p_load(readr, dplyr, RcppRoll, lubridate, stringr, ggplot2, ggridges, ggthemes)

clima <- read_csv2("https://raw.githubusercontent.com/italocegatta/italocegatta.github.io_source/master/content/dados/posto_esalq.csv") %>% 
  mutate(
    data = dmy(data),
    ano = year(data),
    decada_label = cut(ano, breaks = seq(1910, 2020, by = 10), dig.lab = 100, right = FALSE),
    decada = as.numeric(str_extract(decada_label, "[0-9]+"))
  )

clima

## # A tibble: 1,200 x 9
##    data         prec    ur t_max t_min t_med   ano decada_label decada
##    <date>      <dbl> <dbl> <dbl> <dbl> <dbl> <dbl> <fct>         <dbl>
##  1 1917-01-01 296.      NA  28.1 18.3   23.2 1917. [1910,1920)   1910.
##  2 1917-02-01 136.      NA  28.3 18.4   23.3 1917. [1910,1920)   1910.
##  3 1917-03-01  58.9     NA  28.6 16.9   22.7 1917. [1910,1920)   1910.
##  4 1917-04-01 116.      NA  26.7 13.9   20.3 1917. [1910,1920)   1910.
##  5 1917-05-01  58.5     NA  22.2  8.60  15.4 1917. [1910,1920)   1910.
##  6 1917-06-01  13.0     NA  23.3  6.30  14.8 1917. [1910,1920)   1910.
##  7 1917-07-01  13.3     NA  24.0  7.70  15.9 1917. [1910,1920)   1910.
##  8 1917-08-01   5.40    NA  26.4  7.50  16.9 1917. [1910,1920)   1910.
##  9 1917-09-01  62.2     NA  27.8 12.2   20.0 1917. [1910,1920)   1910.
## 10 1917-10-01  58.4     NA  27.6 13.8   20.7 1917. [1910,1920)   1910.
## # ... with 1,190 more rows
…
