…
A motivação partiu de uma matéria do Nexo Jornal sobre este tema, porém ao nível estadual. Depois de algumas horas tentando decifrar o site do IBGE, cheguei na página que informa a população residente, por lugar de nascimento e unidade da federação.

Então vamos começar a análise carregando os pacotes do R necessários para este post.

if (!require("pacman")) install.packages("pacman")
pacman::p_load(readr, dplyr, tidyr, forcats, sf, geosphere, brmap, ggplot2, ggrepel, geofacet)
pacman::p_load_gh("italocegatta/brmap")

Os dados originais estão disponíveis neste link, fiz apenas adequações porque o IBGE insiste em mesclar células nas tabelas disponibilizadas. Já nesta tabela você consegue olhar para o Estado que você mora e analisar quanto dos residentes nasceram em outros Estados. Mas o objetivo é enxergar isso de forma gráfica para ampliar a percepção dos dados.

base <- read_csv2("https://raw.githubusercontent.com/italocegatta/italocegatta.github.io_source/master/content/dados/pnad_2015_migracao.csv")

base

## # A tibble: 27 x 28
##    Estado Rondônia  Acre Amazonas Roraima  Pará Amapá Tocantins Maranhão
##    <chr>     <dbl> <dbl>    <dbl>   <dbl> <dbl> <dbl>     <dbl>    <dbl>
##  1 Rondô~    57.4   1.84     1.9     0.08  0.7  NA        0.02      1.02
##  2 Acre       1.54 87.9      3.89    0.02  0.17 NA        0.02      0.11
##  3 Amazo~     0.46  1.6     87.6     0.23  5.36  0.13     0.06      0.87
##  4 Rorai~     0.65  0.24     5.16   55.6   6.54  0.04     0.570    19.0 
##  5 Pará       0.03  0.02     0.49    0.02 84.6   0.19     1.07      6.89
##  6 Amapá      0.1   0.03     0.2     0.17 20.8  72.7      0.1       3.65
##  7 Tocan~     0.07  0.07     0.02   NA     2.83  0.02    69.5       8.58
##  8 Maran~     0.03  0.01     0.05   NA     1.11  0.01     0.32     92.4 
##  9 Piauí      0.04  0.02     0.04    0.05  0.28 NA        0.11      3.97
## 10 Ceará      0.03  0.04     0.11   NA     0.22  0.01     0.03      0.35
## # ... with 17 more rows, and 19 more variables: Piauí <dbl>, Ceará <dbl>,
## #   `Rio Grande do Norte` <dbl>, Paraíba <dbl>, Pernambuco <dbl>,
## #   Alagoas <dbl>, Sergipe <dbl>, Bahia <dbl>, `Minas Gerais` <dbl>,
## #   `Espírito Santo` <dbl>, `Rio de Janeiro` <dbl>, `São Paulo` <dbl>,
## #   Paraná <dbl>, `Santa Catarina` <dbl>, `Rio Grande do Sul` <dbl>, `Mato
## #   Grosso do Sul` <dbl>, `Mato Grosso` <dbl>, Goiás <dbl>, `Distrito
## #   Federal` <dbl>
Dados longitudinais como estes ajudam humanos a enxergar os valores de forma mais fácil, mas do ponto de vista de processamento de dados, não dá pra fazer muita coisa com os dados assim. Vamos organizá-los seguindo a filosofia do Tidy data.

A nova tabela nos informa a porcentagem da população residente (coluna ‘valor’) para cada Estado, subdividindo os valores por local de nascimento. E agora vai a primeira simplificação: foram selecionados apenas os 6 Estados de nascimento mais representativos para cada Estado de residência.

df <- base %>% 
  gather(reside, valor, -Estado) %>%
  select(nasce = Estado, reside, valor) %>% 
  replace_na(list(valor = 0)) %>% 
  group_by(nasce) %>% 
  filter(row_number(-valor) <= 6) %>% 
  ungroup()

df

## # A tibble: 162 x 3
##    nasce    reside   valor
##    <chr>    <chr>    <dbl>
##  1 Rondônia Rondônia 57.4 
##  2 Acre     Rondônia  1.54
##  3 Amazonas Rondônia  0.46
##  4 Acre     Acre     87.9 
##  5 Amazonas Acre      1.6 
##  6 Acre     Amazonas  3.89
##  7 Amazonas Amazonas 87.6 
##  8 Roraima  Amazonas  5.16
##  9 Roraima  Roraima  55.6 
## 10 Amazonas Pará      5.36
## # ... with 152 more rows
…
fluxo_linha

## Simple feature collection with 36 features and 5 fields
## geometry type:  LINESTRING
## dimension:      XY
## bbox:           xmin: -64.65314 ymin: -29.70554 xmax: -36.62489 ymax: 2.084236
## epsg (SRID):    4326
## proj4string:    +proj=longlat +ellps=WGS84 +no_defs
## # A tibble: 36 x 6
##    nasce    reside  valor                             geometry   lon    lat
##    <fct>    <chr>   <dbl>                     <LINESTRING [°]> <dbl>  <dbl>
##  1 Rondônia Rondôn~ 57.4  (-62.84198 -10.91318, -62.84198 -10~ -62.8 -10.9 
##  2 Roraima  Amazon~  5.16 (-61.39929 2.084236, -61.46309 1.96~ -64.7  -4.15
##  3 Roraima  Roraima 55.6  (-61.39929 2.084236, -61.39929 2.08~ -61.4   2.08
##  4 Roraima  Pará     6.54 (-61.39929 2.084236, -61.23585 1.96~ -53.1  -3.97
##  5 Roraima  Maranh~ 19.0  (-61.39929 2.084236, -61.08345 1.94~ -45.3  -5.06
##  6 Distrit~ Maranh~  4.42 (-47.79736 -15.78067, -47.74601 -15~ -45.3  -5.06
##  7 Ceará    Piauí    0.39 (-39.61569 -5.093333, -39.68117 -5.~ -43.0  -7.39
##  8 Distrit~ Piauí    5.08 (-47.79736 -15.78067, -47.69952 -15~ -43.0  -7.39
##  9 Roraima  Ceará    2.76 (-61.39929 2.084236, -60.9725 1.942~ -39.6  -5.09
## 10 Ceará    Ceará   95.8  (-39.61569 -5.093333, -39.61569 -5.~ -39.6  -5.09
## # ... with 26 more rows
…
fluxo_poligono

## Simple feature collection with 36 features and 3 fields
## geometry type:  POLYGON
## dimension:      XY
## bbox:           xmin: -73.80156 ymin: -33.75077 xmax: -34.79288 ymax: 5.271841
## epsg (SRID):    4674
## proj4string:    +proj=longlat +ellps=GRS80 +towgs84=0,0,0,0,0,0,0 +no_defs
## # A tibble: 36 x 4
##    nasce       reside  valor                                       geometry
##  * <fct>       <chr>   <dbl>                                  <POLYGON [°]>
##  1 Rondônia    Rondôn~ 57.4  ((-61.58313 -8.798689, -61.5801 -8.802692, -6~
##  2 Roraima     Amazon~  5.16 ((-63.37209 2.211862, -63.35979 2.197102, -63~
##  3 Roraima     Roraima 55.6  ((-58.8955 1.227694, -58.89546 0.9047314, -58~
##  4 Roraima     Pará     6.54 ((-54.87225 2.433747, -54.87625 2.426694, -54~
##  5 Roraima     Maranh~ 19.0  ((-41.81411 -2.739309, -41.82457 -2.756218, -~
##  6 Distrito F~ Maranh~  4.42 ((-41.81411 -2.739309, -41.82457 -2.756218, -~
##  7 Ceará       Piauí    0.39 ((-41.32268 -2.92132, -41.32156 -2.935416, -4~
##  8 Distrito F~ Piauí    5.08 ((-41.32268 -2.92132, -41.32156 -2.935416, -4~
##  9 Roraima     Ceará    2.76 ((-37.25329 -4.831556, -37.44645 -4.880961, -~
## 10 Ceará       Ceará   95.8  ((-37.25329 -4.831556, -37.44645 -4.880961, -~
## # ... with 26 more rows
…
