…
A Fórmula de Monte Alegre (FMA) é um índice bastante simples, foi proposta em 1972 por Soares (1972) e utiliza apenas a umidade relativa do ar às 13h e a precipitação para calcular o risco de incêndio. É um índice que possui 5 classes de risco e é cumulativo, portanto precisa ser calculado todos os dias.

O objetivo deste post é implementar a FMA utilizando dados de 1988 à 2017 da estação meteorológica convencional da ESALQ em Piracicaba.

if (!require("pacman")) install.packages("pacman")
pacman::p_load(readr, dplyr, tidyr, forcats, lubridate, ggplot2, ggridges)

base <- read_csv2(
  "https://raw.githubusercontent.com/italocegatta/italocegatta.github.io_source/master/content/dados/posto_esalq_dia.csv",
  col_types = cols(.default = col_number(), data = col_character())
)

base

## # A tibble: 10,961 x 3
##    data         ppt ur_med
##    <chr>      <dbl>  <dbl>
##  1 01/01/1988   0       62
##  2 02/01/1988   0       65
##  3 03/01/1988   0       65
##  4 04/01/1988   0       69
##  5 05/01/1988  33.9     74
##  6 06/01/1988  66       90
##  7 07/01/1988   0       78
##  8 08/01/1988   0.5     88
##  9 09/01/1988  17.1     83
## 10 10/01/1988   7.8     83
## # ... with 10,951 more rows

O primeiro passo é estimar a umidade relativa às 13h, uma vez que é este valor que a FMA considera para o cálculo. Utilizaremos a equação ajustada por Alvares et al. (2014).

base_fma <- base %>%
  mutate(
    data = dmy(data),
    ur13 = (8.77 * exp(0.024 * ur_med)) - 2.943
  ) %>% 
  select(data, ppt, ur13)

base_fma

## # A tibble: 10,961 x 3
##    data         ppt  ur13
##    <date>     <dbl> <dbl>
##  1 1988-01-01   0    35.9
##  2 1988-01-02   0    38.8
##  3 1988-01-03   0    38.8
##  4 1988-01-04   0    43.0
##  5 1988-01-05  33.9  48.9
##  6 1988-01-06  66    73.1
##  7 1988-01-07   0    54.1
##  8 1988-01-08   0.5  69.5
##  9 1988-01-09  17.1  61.3
## 10 1988-01-10   7.8  61.3
## # ... with 10,951 more rows
…
  factor(classe, levels = c("Nulo", "Pequeno", "Médio", "Alto", "Muito Alto"))
}

Seguindo para o cálculo do índice, vamos criar um novo data frame com o valor FMA e as classes de riscos utilizando as funções que acabamos de criar.

dados_fma <- base_fma %>% 
  mutate(
    fma = fma(data, ur13, ppt),
    risco = fma_classe(fma)
  )

dados_fma

## # A tibble: 10,961 x 5
##    data         ppt  ur13   fma risco  
##    <date>     <dbl> <dbl> <dbl> <fct>  
##  1 1988-01-01   0    35.9  0    Nulo   
##  2 1988-01-02   0    38.8  2.58 Pequeno
##  3 1988-01-03   0    38.8  5.16 Médio  
##  4 1988-01-04   0    43.0  7.48 Médio  
##  5 1988-01-05  33.9  48.9  0    Nulo   
##  6 1988-01-06  66    73.1  0    Nulo   
##  7 1988-01-07   0    54.1  1.85 Pequeno
##  8 1988-01-08   0.5  69.5  3.29 Médio  
##  9 1988-01-09  17.1  61.3  0    Nulo   
## 10 1988-01-10   7.8  61.3  1.63 Pequeno
## # ... with 10,951 more rows
…
