…
Para consultar os códigos das localidades, o pacote disponibiliza um dataframe auxiliar localidades.

localidades

## # A tibble: 5,597 x 3
##    localidade localidade_nome       tipo     
##    <chr>      <chr>                 <chr>    
##  1 1100015    Alta Floresta D'Oeste Município
##  2 1100023    Ariquemes             Município
##  3 1100031    Cabixi                Município
##  4 1100049    Cacoal                Município
##  5 1100056    Cerejeiras            Município
##  6 1100064    Colorado do Oeste     Município
##  7 1100072    Corumbiara            Município
##  8 1100080    Costa Marques         Município
##  9 1100098    Espigão D'Oeste       Município
## 10 1100106    Guajará-Mirim         Município
## # ... with 5,587 more rows
…
eliza_estado <- localidades %>% 
  filter(tipo == "Estado") %>% 
  mutate(
    freq = map(
      localidade,
      ~brnome_freq(nome = "Eliza", localidade_cod = .x) 
    )
  ) %>% 
  select(freq) %>% 
  unnest()

eliza_estado

## # A tibble: 218 x 7
##    nome  sexo  localidade_cod localidade_nome nascimento_peri~
##    <chr> <lgl>          <int> <chr>           <chr>           
##  1 ELIZA NA                11 Rondônia        [1940, 1950]    
##  2 ELIZA NA                11 Rondônia        [1950, 1960]    
##  3 ELIZA NA                11 Rondônia        [1960, 1970]    
##  4 ELIZA NA                11 Rondônia        [1970, 1980]    
##  5 ELIZA NA                11 Rondônia        [1980, 1990]    
##  6 ELIZA NA                11 Rondônia        [1990, 2000]    
##  7 ELIZA NA                11 Rondônia        [2000, 2010]    
##  8 ELIZA NA                12 Acre            [1940, 1950]    
##  9 ELIZA NA                12 Acre            [1960, 1970]    
## 10 ELIZA NA                12 Acre            [1970, 1980]    
## # ... with 208 more rows, and 2 more variables: nascimento_decada <int>,
## #   frequencia <int>
…
